<svg width="25" height="29" viewBox="0 0 25 29" fill="none" xmlns="http://www.w3.org/2000/svg">
<path d="M23.5211 12.4833L4.14904 1.03062C2.57505 0.100541 0.164551 1.0031 0.164551 3.30354V26.2033C0.164551 28.2671 2.40445 29.5109 4.14904 28.4762L23.5211 17.0291C25.2492 16.011 25.2547 13.5014 23.5211 12.4833Z" fill="#3682F7"/>
</svg>
