<svg width="23" height="30" viewBox="0 0 23 30" fill="none" xmlns="http://www.w3.org/2000/svg">
<path d="M19.5994 4.24512H15.1133C15.1133 2.26563 13.5039 0.65625 11.5244 0.65625C9.54493 0.65625 7.93555 2.26563 7.93555 4.24512H3.44946C1.96345 4.24512 0.757812 5.45075 0.757812 6.93677V26.6755C0.757812 28.1616 1.96345 29.3672 3.44946 29.3672H19.5994C21.0854 29.3672 22.291 28.1616 22.291 26.6755V6.93677C22.291 5.45075 21.0854 4.24512 19.5994 4.24512ZM6.14111 24.4325C5.3953 24.4325 4.79529 23.8325 4.79529 23.0867C4.79529 22.3409 5.3953 21.7408 6.14111 21.7408C6.88692 21.7408 7.48694 22.3409 7.48694 23.0867C7.48694 23.8325 6.88692 24.4325 6.14111 24.4325ZM6.14111 19.0492C5.3953 19.0492 4.79529 18.4492 4.79529 17.7034C4.79529 16.9576 5.3953 16.3575 6.14111 16.3575C6.88692 16.3575 7.48694 16.9576 7.48694 17.7034C7.48694 18.4492 6.88692 19.0492 6.14111 19.0492ZM6.14111 13.6659C5.3953 13.6659 4.79529 13.0659 4.79529 12.3201C4.79529 11.5743 5.3953 10.9742 6.14111 10.9742C6.88692 10.9742 7.48694 11.5743 7.48694 12.3201C7.48694 13.0659 6.88692 13.6659 6.14111 13.6659ZM11.5244 2.89929C12.2702 2.89929 12.8702 3.49931 12.8702 4.24512C12.8702 4.99093 12.2702 5.59094 11.5244 5.59094C10.7786 5.59094 10.1786 4.99093 10.1786 4.24512C10.1786 3.49931 10.7786 2.89929 11.5244 2.89929ZM18.7021 23.5353C18.7021 23.782 18.5003 23.9839 18.2535 23.9839H10.1786C9.93185 23.9839 9.72998 23.782 9.72998 23.5353V22.6381C9.72998 22.3913 9.93185 22.1895 10.1786 22.1895H18.2535C18.5003 22.1895 18.7021 22.3913 18.7021 22.6381V23.5353ZM18.7021 18.152C18.7021 18.3987 18.5003 18.6006 18.2535 18.6006H10.1786C9.93185 18.6006 9.72998 18.3987 9.72998 18.152V17.2548C9.72998 17.008 9.93185 16.8062 10.1786 16.8062H18.2535C18.5003 16.8062 18.7021 17.008 18.7021 17.2548V18.152ZM18.7021 12.7687C18.7021 13.0154 18.5003 13.2173 18.2535 13.2173H10.1786C9.93185 13.2173 9.72998 13.0154 9.72998 12.7687V11.8715C9.72998 11.6247 9.93185 11.4229 10.1786 11.4229H18.2535C18.5003 11.4229 18.7021 11.6247 18.7021 11.8715V12.7687Z" fill="#A5A5A5"/>
</svg>
